{
  "locals": {
    "url": "http://localhost:8080",
    "name": "Documentazinga",
    "owner": "Emb",
    "description": "Reading documentation with inspiration and offering graceful raccoon"
  },
  "plugins": [
    "./plugins/paginator.coffee",
    "wintersmith-libsass"
  ],
  "require": {
    "moment": "moment",
    "_": "underscore",
    "typogr": "typogr"
  },
  "ignore": [
    
  ],
  "jade": {
    "pretty": true
  },
  "markdown": {
    "smartLists": true,
    "smartypants": true,
    "gfm": true,
    "tables": true
  },
  "paginator": {
    "perPage": 3
  },
  "node-sass": {
    "minify": false
  },
  "clean-css": {
    "keepBreaks": true,
    "remove": true,
    "aggressiveMerging": false
  }
}
